{
  "singleServerConfig": {
    "idleConnectionTimeout": 20000,
    "pingTimeout": 1000,
    "connectTimeout": 10000,
    "timeout": 3000,
    "retryAttempts": 3,
    "retryInterval": 1500,
    "reconnectionTimeout": 3000,
    "failedAttempts": 3,
    "password": null,
    "subscriptionsPerConnection": 5,
    "clientName": null,
    "address": "redis://192.168.1.212:6379",
    "subscriptionConnectionMinimumIdleSize": 1,
    "subscriptionConnectionPoolSize": 5,
    "connectionMinimumIdleSize": 5,
    "connectionPoolSize": 100,
    "database": 7,
    "dnsMonitoring": false,
    "dnsMonitoringInterval": 5000
  },
  "threads": 0,
  "nettyThreads": 0,
  "codec": null,
  "useLinuxNativeEpoll": false
}